^C:\USERS\BEN\SOURCE\REPOS\CHINESEPOKER\CHINESEPOKER\CHINESEPOKER.CPP
C:\USERS\BEN\SOURCE\REPOS\CHINESEPOKER\CHINESEPOKER\DEBUG\VC142.PDB
C:\USERS\BEN\SOURCE\REPOS\CHINESEPOKER\CHINESEPOKER\DEBUG\VC142.IDB
C:\USERS\BEN\SOURCE\REPOS\CHINESEPOKER\CHINESEPOKER\DEBUG\CHINESEPOKER.OBJ
